\relax 
\providecommand\hyper@newdestlabel[2]{}
\providecommand\HyperFirstAtBeginDocument{\AtBeginDocument}
\HyperFirstAtBeginDocument{\ifx\hyper@anchor\@undefined
\global\let\oldcontentsline\contentsline
\gdef\contentsline#1#2#3#4{\oldcontentsline{#1}{#2}{#3}}
\global\let\oldnewlabel\newlabel
\gdef\newlabel#1#2{\newlabelxx{#1}#2}
\gdef\newlabelxx#1#2#3#4#5#6{\oldnewlabel{#1}{{#2}{#3}}}
\AtEndDocument{\ifx\hyper@anchor\@undefined
\let\contentsline\oldcontentsline
\let\newlabel\oldnewlabel
\fi}
\fi}
\global\let\hyper@last\relax 
\gdef\HyperFirstAtBeginDocument#1{#1}
\providecommand*\HyPL@Entry[1]{}
\HyPL@Entry{0<</S/D>>}
\@writefile{toc}{\contentsline {section}{\numberline {1}Introduction}{1}{section.1}}
\@writefile{toc}{\contentsline {section}{\numberline {2}P, NP, and NP-Hard Problems}{1}{section.2}}
\@writefile{toc}{\contentsline {subsection}{\numberline {2.1}P}{1}{subsection.2.1}}
\@writefile{toc}{\contentsline {subsection}{\numberline {2.2}NP}{1}{subsection.2.2}}
\@writefile{toc}{\contentsline {subsection}{\numberline {2.3}NP-Hard}{1}{subsection.2.3}}
\@writefile{toc}{\contentsline {section}{\numberline {3}Reductions and NP-Completeness}{2}{section.3}}
\@writefile{toc}{\contentsline {section}{\numberline {4}P $\mathrel {\mathop {=}\limits ^{?}}$ NP}{2}{section.4}}
\gdef\exam@lastpage{2}
\gdef\exam@lastcoverpage{0}
\gdef\exam@totalpages{2}
\gdef\exam@numpoints{0}
\gdef\exam@numbonuspoints{0}
\gdef\exam@numquestions{0}
\gdef\exam@numparts{0}
\gdef\exam@numsubparts{0}
\gdef\exam@numsubsubparts{0}
\gdef\lastpage@withpoints{0}
\gdef\lastpage@withbonuspoints{0}
